module github.com/qnib/go-fisherman

go 1.18

require (
	github.com/testcontainers/testcontainers-go v0.13.0
	github.com/urfave/cli v1.22.9
	github.com/zpatrick/go-config v0.0.0-20191118215128-80ba6b3e54f6
)

require (
	github.com/Azure/go-ansiterm v0.0.0-20210617225240-d185dfc1b5a1 // indirect
	github.com/BurntSushi/toml v1.2.0 // indirect
	github.com/Microsoft/go-winio v0.4.17 // indirect
	github.com/Microsoft/hcsshim v0.8.23 // indirect
	github.com/cenkalti/backoff/v4 v4.1.2 // indirect
	github.com/containerd/cgroups v1.0.1 // indirect
	github.com/containerd/containerd v1.5.9 // indirect
	github.com/cpuguy83/go-md2man/v2 v2.0.2 // indirect
	github.com/docker/distribution v2.7.1+incompatible // indirect
	github.com/docker/docker v20.10.11+incompatible // indirect
	github.com/docker/go-connections v0.4.0 // indirect
	github.com/docker/go-units v0.4.0 // indirect
	github.com/ghodss/yaml v1.0.0 // indirect
	github.com/go-ini/ini v1.67.0 // indirect
	github.com/gogo/protobuf v1.3.2 // indirect
	github.com/golang/groupcache v0.0.0-20200121045136-8c9f03a8e57e // indirect
	github.com/golang/protobuf v1.5.2 // indirect
	github.com/google/uuid v1.3.0 // indirect
	github.com/magiconair/properties v1.8.5 // indirect
	github.com/moby/sys/mount v0.2.0 // indirect
	github.com/moby/sys/mountinfo v0.5.0 // indirect
	github.com/moby/term v0.0.0-20210619224110-3f7ff695adc6 // indirect
	github.com/morikuni/aec v0.0.0-20170113033406-39771216ff4c // indirect
	github.com/opencontainers/go-digest v1.0.0 // indirect
	github.com/opencontainers/image-spec v1.0.2 // indirect
	github.com/opencontainers/runc v1.0.2 // indirect
	github.com/pkg/errors v0.9.1 // indirect
	github.com/russross/blackfriday/v2 v2.1.0 // indirect
	github.com/sirupsen/logrus v1.8.1 // indirect
	github.com/stretchr/testify v1.8.0 // indirect
	go.opencensus.io v0.22.3 // indirect
	golang.org/x/net v0.0.0-20211108170745-6635138e15ea // indirect
	golang.org/x/sys v0.0.0-20211124211545-fe61309f8881 // indirect
	google.golang.org/genproto v0.0.0-20201110150050-8816d57aaa9a // indirect
	google.golang.org/grpc v1.33.2 // indirect
	google.golang.org/protobuf v1.27.1 // indirect
	gopkg.in/check.v1 v1.0.0-20201130134442-10cb98267c6c // indirect
	gopkg.in/yaml.v2 v2.4.0 // indirect
	gopkg.in/yaml.v3 v3.0.1 // indirect
)
